{
	"case_id":668,
	"broker":{
		"name":"Oliver Hardwell", 
		"age":44, 
		"seed":001919181, 
		"complaints":23,
		"bills":{
			"lawyer fees":8.9
		},
		"talk":"I lowered my fees, but I came up with an ingenious plan to make some money!"
	},
	"investor":{
		"name":"Karol Lewis",
		"age":29,
		"sex":"F",
		"preference":"Entertainment",
	},
	"money":{
		"value":400
	},
	"old_stock":{
		"name":"Judging Chamber",
		"value":80,
		"volatility":40,
		"history":[0,5,60,172],
		"type":"Financial"
	},
		"old_stock":{
		"name":"New Judging Chamber",
		"value":80,
		"volatility":40,
		"history":[0,5,60,172],
		"type":"Financial"
	},
	"result":{
		"pass":{
			"happy":false,
			"money":80,
			"reputation":-5,
			"text":"Karol lost her child, but you don't really care, do you?"
		},
		"fail":{
			"happy":true,
			"money":0,
			"reputation":1,
			"text":"That stock wasn't even a real company. Good job keeping that broker in line!"
		}
	}


}