{
	"case_id":1,
	"broker":{
		"name":"John Badunoff", 
		"age":36, 
		"seed":10101010,
		"complaints":35,
		"bills":{
			"stockholder's fee":3.4,
			"parking fee":1.2,
			"joint account fee":0.7,
			"swiss account fee":2.2
		},
		"talk":"Hey, I've been rushing all over the place and come to talk to you and you are useless please help I can no longer speak I have run out of room to "
	},
	"investor":{
		"name":"Meredeth",
		"age":23,
		"sex":"F",
		"preference":"Financial"
	},
	"old_stock":{ 
		"name":"A struggling regulator LLC",
		"value":10,
		"volatility":45,
		"history":[50,10],
		"type":"Financial" 
	},
	"new_stock":{
		"name":"Snapchat Vodka Accessories",
		"value":53,
		"volatility":16,
		"history":[40,45,46,47,53,53],
		"type":"Entertainment"
	},
	"result":{
		"pass":{
			"happy":true,
			"money":30,
			"reputation":1,
			"text":"Meredeth was able to save for her retirement."
		},
		"fail":{
			"happy":false,
			"money":-50,
			"reputation":-5,
			"text":"Meredeth had to sell her car to pay for fees."
		}
	}


}