{
	"case_id":6,
	"broker":{
		"name":"Devon Scott",
		"age":50,
		"seed":35635,
		"complaints":30,
		"bills":{
			"stockholder's fee":4.9,
			"overseas accounts fee":1.5,
			"introspection fee":2.3
		},
		"talk":"I specialize in turning bad investments into good ones."
	},
	"investor":{
		"name":"Shilpa",
		"age":25,
		"sex":"F",
		"preference":"Financial"
	},
	"old_stock":{
		"name":"Unflattering Cat Selfies Inc.",
		"value":28,
		"volatility":15,
		"history":[12, 25, 29, 15, 17],
		"type":"Entertainment"
	},
	"new_stock":{
		"name":"William H. Johnson Paper Company",
		"value":18,
		"volatility":29,
		"history":[14, 25, 36, 22, 40],
		"type":"Commercial"
	},
	"result":{
		"pass":{
			"happy":true,
			"money":30,
			"reputation":1,
			"text":"Shilpa made enough money off her investments to buy a new house."
		},
		"fail":{
			"happy":false,
			"money":-50,
			"reputation":-5,
			"text":"Shilpa had to move into her friend's basement."
		}
	}
}