{
	"case_id":3,
	"broker":{
		"name":"James Richter",
		"age":37, 
		"seed":502847,
		"complaints":28,
		"bills":{
			"stockholder's fee":3.5,
			"labeling fee":1.2,
			"joint account fee":4.3
		},
		"talk":"Have you worked with my father?  Don't approve anything of his, he's extremely untrustworthy."
	},
	"investor":{
		"name":"Amit",
		"age":32,
		"sex":"M",
		"preference":"Financial"
	},
	"new_stock":{
		"name":"Happy Valley Medical Industries",
		"value":48,
		"volatility":11,
		"history":[38, 42, 58, 56, 62, 52],
		"type":"Industrial"
	},
	"result":{
		"pass":{
			"happy":true,
			"money":10,
			"reputation":1,
			"text":"Happy Valley folded six weeks later and Amit lost his life savings, but he filed a complaint so maybe this won't happen in the future.  Not your problem!"
		},
		"fail":{
			"happy":false,
			"money":-15,
			"reputation":-1,
			"text":"Amit lost his investment opportunity and now James is filing a complaint against the SEC.  Perhaps we'll need to update our rules in the future."
		}
	}
}