{
	"case_id":111,
	"broker":{
		"name":"Jason Tryhard, LLC", 
		"age":34, 
		"seed":2380780, 
		"complaints":36,
		"bills":{
			"stockholder's fee":3.4,
			"parking fee":1.2,
			"joint account fee":0.7,
			"swiss account fee":0.2
		},
		"talk":"Okay, listen. That last complaint was a misunderstanding. Don't count it, just let me through please."
	},
	"investor":{
		"name":"Jakobs Shill",
		"age":37,
		"sex":"M",
		"preference":"Entertainment",
	},
	"new_stock":{
		"name":"eSports at the Bazz",
		"value":38,
		"volatility":05,
		"history":[37,37,38],
		"type":"Entertainment"
	},
	"result":{
		"pass":{
			"happy":false,
			"money":-25,
			"reputation":-2,
			"text":"Jakobs sued Winra for malpractice! Dude can hold a grudge."
		},
		"fail":{
			"happy":true,
			"money":0,
			"reputation":1,
			"text":"Misunderstandings are for suckers. You are the law. -Judge Dredd"
		}
	}


}