{
	"case_id":4,
	"broker":{
		"name":"Madison Greenhilt",
		"age":58,
		"seed":435467,
		"complaints":22,
		"bills":{
			"stockholder's fee":2.2,
			"travel charge":1.3,
			"extraneous fees":1.3,
			"demarkation fee":0.5
		},
		"talk":"My fees add up to only 3.7%."
	},
	"investor":{
		"name":"Mikhail",
		"age":25,
		"sex":"M",
		"preference":"Technical"
	},
	"old_stock":{
		"name":"3D Airlight Industries",
		"value":17,
		"volatility":23,
		"history":[15, 32, 20, 25],
		"type":"Commercial"
	},
	"new_stock":{
		"name":"Oregon Trail Trucking",
		"value":36,
		"volatility":34,
		"history":[41, 52],
		"type":"Commercial"
	},
	"result":{
		"pass":{
			"happy":true,
			"money":10,
			"reputation":1,
			"text":"Mike made enough money off this deal to buy a new motorcycle."
		},
		"fail":{
			"happy":false,
			"money":-20,
			"reputation":-1,
			"text":"Mike was forced to take a second job at Burger Queen to make up his losses."
		}
	}
}